[ca/desrt/dconf-editor]
show-warning=false

[org/gnome/desktop/a11y]
always-show-universal-access-status=true

[org/gnome/desktop/background]
picture-uri=''
picture-uri-dark=''
primary-color='#555555'
secondary-color='#555555'

[org/gnome/desktop/input-sources]
sources=[('xkb', 'us'), ('xkb', 'ru')]
xkb-options=['compose:rctrl']

[org/gnome/desktop/interface]
color-scheme='prefer-light'

[org/gnome/desktop/media-handling]
autorun-never=true

[org/gnome/desktop/peripherals/touchpad]
click-method='areas'
disable-while-typing=false
tap-to-click=true

[org/gnome/desktop/privacy]
old-files-age=uint32 1
recent-files-max-age=7
remove-old-trash-files=true

[org/gnome/desktop/wm/keybindings]
toggle-fullscreen=['<Super>F11']

[org/gnome/mutter]
center-new-windows=true
experimental-features=@as []

[org/gnome/nautilus/preferences]
default-folder-viewer='list-view'

[org/gnome/settings-daemon/plugins/color]
night-light-temperature=uint32 2700

[org/gnome/settings-daemon/plugins/media-keys]
custom-keybindings=['/org/gnome/settings-daemon/plugins/media-keys/custom-keybindings/custom0/']

[org/gnome/settings-daemon/plugins/media-keys/custom-keybindings/custom0]
binding='<Super>Return'
command='ptyxis'
name='Launch the terminal'

[org/gnome/settings-daemon/plugins/power]
sleep-inactive-ac-type='nothing'

[org/gnome/shell]
favorite-apps=@as []

[org/gnome/software]
download-updates=false
download-updates-notify=false

[org/gtk/gtk4/settings/file-chooser]
show-hidden=true
sort-directories-first=true
